nlms_accelerator_ip/nlms_accelerator_ip.sim/sim_1/behav/xsim/simulate.log
Vivado Simulator 2018.3
Time resolution is 1 ps
FIR
adap coef
y = 256, d = 0, adap coef: -128
adap
h[0] = 128, x[0] = 256, d_h[0] = -128
h[1] = 65280, x[1] = 0, d_h[1] = 0
h[2] = 512, x[2] = 0, d_h[2] = 0
h[3] = 65024, x[3] = 0, d_h[3] = 0
h[4] = 768, x[4] = 0, d_h[4] = 0
h[5] = 64768, x[5] = 0, d_h[5] = 0
h[6] = 1024, x[6] = 0, d_h[6] = 0
h[7] = 64512, x[7] = 0, d_h[7] = 0
h[8] = 1280, x[8] = 0, d_h[8] = 0
h[9] = 64256, x[9] = 0, d_h[9] = 0
h[10] = 1536, x[10] = 0, d_h[10] = 0
h[11] = 64000, x[11] = 0, d_h[11] = 0
FIR
pos sat on num       65280
adap coef
y = -32607, d = 181, adap coef: -16374
adap
h[0] = 44877, x[0] = 325, d_h[0] = -20787
h[1] = 48906, x[1] = 256, d_h[1] = -16374
h[2] = 512, x[2] = 0, d_h[2] = 0
h[3] = 65024, x[3] = 0, d_h[3] = 0
h[4] = 768, x[4] = 0, d_h[4] = 0
h[5] = 64768, x[5] = 0, d_h[5] = 0
h[6] = 1024, x[6] = 0, d_h[6] = 0
h[7] = 64512, x[7] = 0, d_h[7] = 0
h[8] = 1280, x[8] = 0, d_h[8] = 0
h[9] = 64256, x[9] = 0, d_h[9] = 0
h[10] = 1536, x[10] = 0, d_h[10] = 0
h[11] = 64000, x[11] = 0, d_h[11] = 0
FIR
pos sat on num       76606
pos sat on num       62087
adap coef
y = 510, d = 256, adap coef: -127
adap
h[0] = 44661, x[0] = 437, d_h[0] = -216
h[1] = 48745, x[1] = 325, d_h[1] = -161
h[2] = 385, x[2] = 256, d_h[2] = -127
h[3] = 65024, x[3] = 0, d_h[3] = 0
h[4] = 768, x[4] = 0, d_h[4] = 0
h[5] = 64768, x[5] = 0, d_h[5] = 0
h[6] = 1024, x[6] = 0, d_h[6] = 0
h[7] = 64512, x[7] = 0, d_h[7] = 0
h[8] = 1280, x[8] = 0, d_h[8] = 0
h[9] = 64256, x[9] = 0, d_h[9] = 0
h[10] = 1536, x[10] = 0, d_h[10] = 0
h[11] = 64000, x[11] = 0, d_h[11] = 0
FIR
pos sat on num       73795
pos sat on num       83209
pos sat on num       65024
adap coef
y = -32283, d = 181, adap coef: 16232
adap
h[0] = 5945, x[0] = 423, d_h[0] = 26820
h[1] = 10917, x[1] = 437, d_h[1] = 27708
h[2] = 20992, x[2] = 325, d_h[2] = 20607
h[3] = 15720, x[3] = 256, d_h[3] = 16232
h[4] = 768, x[4] = 0, d_h[4] = 0
h[5] = 64768, x[5] = 0, d_h[5] = 0
h[6] = 1024, x[6] = 0, d_h[6] = 0
h[7] = 64512, x[7] = 0, d_h[7] = 0
h[8] = 1280, x[8] = 0, d_h[8] = 0
h[9] = 64256, x[9] = 0, d_h[9] = 0
h[10] = 1536, x[10] = 0, d_h[10] = 0
h[11] = 64000, x[11] = 0, d_h[11] = 0
FIR
pos sat on num       35834
adap coef
y = 11939, d = 0, adap coef: -5969
adap
h[0] = 65512, x[0] = 256, d_h[0] = -5969
h[1] = 1055, x[1] = 423, d_h[1] = -9862
h[2] = 10803, x[2] = 437, d_h[2] = -10189
h[3] = 8143, x[3] = 325, d_h[3] = -7577
h[4] = 60335, x[4] = 256, d_h[4] = -5969
h[5] = 64768, x[5] = 0, d_h[5] = 0
h[6] = 1024, x[6] = 0, d_h[6] = 0
h[7] = 64512, x[7] = 0, d_h[7] = 0
h[8] = 1280, x[8] = 0, d_h[8] = 0
h[9] = 64256, x[9] = 0, d_h[9] = 0
h[10] = 1536, x[10] = 0, d_h[10] = 0
h[11] = 64000, x[11] = 0, d_h[11] = 0
FIR
pos sat on num       76597
pos sat on num       64768
adap coef
y = -9958, d = -181, adap coef: 4888
adap
h[0] = 1675, x[0] = 89, d_h[0] = 1699
h[1] = 5943, x[1] = 256, d_h[1] = 4888
h[2] = 18879, x[2] = 423, d_h[2] = 8076
h[3] = 16486, x[3] = 437, d_h[3] = 8343
h[4] = 1004, x[4] = 325, d_h[4] = 6205
h[5] = 4120, x[5] = 256, d_h[5] = 4888
h[6] = 1024, x[6] = 0, d_h[6] = 0
h[7] = 64512, x[7] = 0, d_h[7] = 0
h[8] = 1280, x[8] = 0, d_h[8] = 0
h[9] = 64256, x[9] = 0, d_h[9] = 0
h[10] = 1536, x[10] = 0, d_h[10] = 0
h[11] = 64000, x[11] = 0, d_h[11] = 0
FIR
adap coef
y = -8894, d = -256, adap coef: 4319
adap
h[0] = 2940, x[0] = 75, d_h[0] = 1265
h[1] = 7444, x[1] = 89, d_h[1] = 1501
h[2] = 23198, x[2] = 256, d_h[2] = 4319
h[3] = 23622, x[3] = 423, d_h[3] = 7136
h[4] = 8376, x[4] = 437, d_h[4] = 7372
h[5] = 9603, x[5] = 325, d_h[5] = 5483
h[6] = 5343, x[6] = 256, d_h[6] = 4319
h[7] = 64512, x[7] = 0, d_h[7] = 0
h[8] = 1280, x[8] = 0, d_h[8] = 0
h[9] = 64256, x[9] = 0, d_h[9] = 0
h[10] = 1536, x[10] = 0, d_h[10] = 0
h[11] = 64000, x[11] = 0, d_h[11] = 0
FIR
pos sat on num       64512
adap coef
y = -25277, d = -181, adap coef: 12548
adap
h[0] = 12105, x[0] = 187, d_h[0] = 9165
h[1] = 11120, x[1] = 75, d_h[1] = 3676
h[2] = 27560, x[2] = 89, d_h[2] = 4362
h[3] = 36170, x[3] = 256, d_h[3] = 12548
h[4] = 29109, x[4] = 423, d_h[4] = 20733
h[5] = 31022, x[5] = 437, d_h[5] = 21419
h[6] = 21273, x[6] = 325, d_h[6] = 15930
h[7] = 11524, x[7] = 256, d_h[7] = 12548
h[8] = 1280, x[8] = 0, d_h[8] = 0
h[9] = 64256, x[9] = 0, d_h[9] = 0
h[10] = 1536, x[10] = 0, d_h[10] = 0
h[11] = 64000, x[11] = 0, d_h[11] = 0
[48146000] TEST FAILED!
